How to use Pivot_Wider and Pivot_Longer in R · Analytico Hub
…
Now we will use pivot longer to change the wide dataset back to its original format

long <- wide %>% pivot_longer(-Year, names_to = "Color", values_to = "Score" )
print(long)

## # A tibble: 25 x 3
## # Groups:   Year [5]
##     Year Color  Score
##    <dbl> <chr>  <dbl>
##  1  2000 blue     218
##  2  2000 green    229
##  3  2000 orange   226
##  4  2000 red      219
##  5  2000 yellow   182
##  6  2001 blue     165
##  7  2001 green    149
##  8  2001 orange   151
##  9  2001 red      273
## 10  2001 yellow   160
## # … with 15 more rows
…
Now we will take the previous dataset (wide2) and revert it back to it’s original format

long2 <- wide2 %>% pivot_longer(everything(), names_sep = "_", names_to = c("Year","Color"), values_to = "Score" )
print(long2)

## # A tibble: 25 x 3
##    Year  Color  Score
##    <chr> <chr>  <dbl>
##  1 2000  blue     218
##  2 2000  green    229
##  3 2000  orange   226
##  4 2000  red      219
##  5 2000  yellow   182
##  6 2001  blue     165
##  7 2001  green    149
##  8 2001  orange   151
##  9 2001  red      273
## 10 2001  yellow   160
## # … with 15 more rows
…
